Subsección 2
…
TAP - Air Portugal

Virgin Atlantic

Para hacer las gráficas y comparaciones, creo una nueva base con las
aerolíneas que tienen al menos una muerte.

Queda una base de 44 filas. De esta seleccionaré aquellas con menos
muertes para hacer las gráficas y comparaciones.

datos_vuelos_muertes <- datos_vuelos %>% filter(fatalities_85_14 > 0)
datos_vuelos_muertes

## # A tibble: 44 × 12
##    airline          incl_reg_subsidiaries avail_seat_km_per_week incidents_85_99
##    <chr>            <lgl>                                  <dbl>           <int>
##  1 Aeroflot         TRUE                              1197672318              76
##  2 Aeromexico       TRUE                               596871813               3
##  3 Air France       FALSE                             3004002661              14
##  4 Air India        TRUE                               869253552               2
##  5 Air New Zealand  TRUE                               710174817               3
##  6 Alaska Airlines  TRUE                               965346773               5
##  7 Alitalia         FALSE                              698012498               7
##  8 All Nippon Airw… FALSE                             1841234177               3
##  9 American         TRUE                              5228357340              21
## 10 Avianca          FALSE                              396922563               5
## # ℹ 34 more rows
## # ℹ 8 more variables: fatal_accidents_85_99 <int>, fatalities_85_99 <int>,
## #   incidents_00_14 <int>, fatal_accidents_00_14 <int>, fatalities_00_14 <int>,
## #   incidents_85_14 <int>, fatal_accidents_85_14 <int>, fatalities_85_14 <int>
…
